ALA
…
Download occurrences

R
Python

library(galah)
galah_config(email = "shandiya.b@gmail.com")

galah_call() |>
  galah_identify("pardalotus") |>
  galah_filter(year >= 2020, 
               stateProvince == "Tasmania") |> 
  atlas_occurrences()

# A tibble: 7,016 × 8
   decimal…¹ decim…² eventDate           scien…³ taxon…⁴ recor…⁵ dataR…⁶ occur…⁷
       <dbl>   <dbl> <dttm>              <chr>   <chr>   <chr>   <chr>   <chr>  
 1     -43.6    147. 2021-02-09 13:00:00 Pardal… https:… 5cb452… eBird … PRESENT
 2     -43.6    147. 2021-02-09 13:00:00 Pardal… https:… 0308ea… eBird … PRESENT
 3     -43.6    147. 2020-12-17 13:00:00 Pardal… https:… 586de7… eBird … PRESENT
 4     -43.6    147. 2021-01-19 13:00:00 Pardal… https:… 3ce6c9… eBird … PRESENT
 5     -43.6    147. 2020-12-16 13:00:00 Pardal… https:… d7ce89… eBird … PRESENT
 6     -43.6    147. 2022-03-26 23:59:00 Pardal… https:… 859aae… iNatur… PRESENT
 7     -43.6    147. 2020-12-16 13:00:00 Pardal… https:… cc741f… eBird … PRESENT
 8     -43.6    147. 2020-12-16 13:00:00 Pardal… https:… 08e3d1… eBird … PRESENT
 9     -43.5    147. 2021-02-08 13:00:00 Pardal… https:… 38f948… eBird … PRESENT
10     -43.5    147. 2020-12-15 13:00:00 Pardal… https:… a2c7b1… eBird … PRESENT
# … with 7,006 more rows, and abbreviated variable names ¹​decimalLatitude,
#   ²​decimalLongitude, ³​scientificName, ⁴​taxonConceptID, ⁵​recordID,
#   ⁶​dataResourceName, ⁷​occurrenceStatus
…
library(galah)
galah_config(email = "shandiya.b@gmail.com")

galah_call() |>
  galah_identify("pardalotus") |>
  galah_filter(year >= 2020, 
               stateProvince == "Tasmania") |> 
  galah_select(species, 
               year, 
               dataResourceName) |> 
  atlas_occurrences()

# A tibble: 7,016 × 3
   species               year dataResourceName
   <chr>                <dbl> <chr>           
 1 Pardalotus punctatus  2021 eBird Australia 
 2 Pardalotus punctatus  2021 eBird Australia 
 3 Pardalotus punctatus  2021 eBird Australia 
 4 Pardalotus punctatus  2021 eBird Australia 
 5 Pardalotus punctatus  2020 eBird Australia 
 6 Pardalotus punctatus  2021 eBird Australia 
 7 Pardalotus punctatus  2021 eBird Australia 
 8 Pardalotus punctatus  2021 eBird Australia 
 9 Pardalotus punctatus  2021 eBird Australia 
10 Pardalotus punctatus  2021 eBird Australia 
# … with 7,006 more rows
…
